{
  "account": [
    {
      "token": "123",
      "name": "Hai-User",
      "role": "USER"
    },
    {
      "token": "234",
      "name": "Hai-Seller",
      "role": "SELLER"
    },
    {
      "token": "345",
      "name": "Hai-Admin",
      "role": "ADMIN"
    }
  ]
}
